-- Merging decision tree log ---
manifest
ADDED from C:\Users\andersed\AndroidStudioProjects\STARTablet\app\src\main\AndroidManifest.xml:2:1-62:12
	package
		ADDED from C:\Users\andersed\AndroidStudioProjects\STARTablet\app\src\main\AndroidManifest.xml:3:5-39
		INJECTED from C:\Users\andersed\AndroidStudioProjects\STARTablet\app\src\main\AndroidManifest.xml
		INJECTED from C:\Users\andersed\AndroidStudioProjects\STARTablet\app\src\main\AndroidManifest.xml
	android:versionName
		INJECTED from C:\Users\andersed\AndroidStudioProjects\STARTablet\app\src\main\AndroidManifest.xml
		INJECTED from C:\Users\andersed\AndroidStudioProjects\STARTablet\app\src\main\AndroidManifest.xml
	xmlns:tools
		ADDED from C:\Users\andersed\AndroidStudioProjects\STARTablet\app\src\main\AndroidManifest.xml:3:40-86
	xmlns:android
		ADDED from C:\Users\andersed\AndroidStudioProjects\STARTablet\app\src\main\AndroidManifest.xml:2:11-69
	android:versionCode
		INJECTED from C:\Users\andersed\AndroidStudioProjects\STARTablet\app\src\main\AndroidManifest.xml
		INJECTED from C:\Users\andersed\AndroidStudioProjects\STARTablet\app\src\main\AndroidManifest.xml
uses-permission#android.permission.ACCESS_WIFI_STATE
ADDED from C:\Users\andersed\AndroidStudioProjects\STARTablet\app\src\main\AndroidManifest.xml:5:5-76
	android:name
		ADDED from C:\Users\andersed\AndroidStudioProjects\STARTablet\app\src\main\AndroidManifest.xml:5:22-73
uses-permission#android.permission.CHANGE_WIFI_STATE
ADDED from C:\Users\andersed\AndroidStudioProjects\STARTablet\app\src\main\AndroidManifest.xml:6:5-76
	android:name
		ADDED from C:\Users\andersed\AndroidStudioProjects\STARTablet\app\src\main\AndroidManifest.xml:6:22-73
uses-permission#android.permission.CHANGE_NETWORK_STATE
ADDED from C:\Users\andersed\AndroidStudioProjects\STARTablet\app\src\main\AndroidManifest.xml:7:5-79
	android:name
		ADDED from C:\Users\andersed\AndroidStudioProjects\STARTablet\app\src\main\AndroidManifest.xml:7:22-76
uses-permission#android.permission.INTERNET
ADDED from C:\Users\andersed\AndroidStudioProjects\STARTablet\app\src\main\AndroidManifest.xml:8:5-67
	android:name
		ADDED from C:\Users\andersed\AndroidStudioProjects\STARTablet\app\src\main\AndroidManifest.xml:8:22-64
uses-permission#android.permission.ACCESS_NETWORK_STATE
ADDED from C:\Users\andersed\AndroidStudioProjects\STARTablet\app\src\main\AndroidManifest.xml:9:5-79
	android:name
		ADDED from C:\Users\andersed\AndroidStudioProjects\STARTablet\app\src\main\AndroidManifest.xml:9:22-76
uses-permission#android.permission.READ_PHONE_STATE
ADDED from C:\Users\andersed\AndroidStudioProjects\STARTablet\app\src\main\AndroidManifest.xml:10:5-75
	android:name
		ADDED from C:\Users\andersed\AndroidStudioProjects\STARTablet\app\src\main\AndroidManifest.xml:10:22-72
uses-permission#android.permission.WRITE_EXTERNAL_STORAGE
ADDED from C:\Users\andersed\AndroidStudioProjects\STARTablet\app\src\main\AndroidManifest.xml:11:5-81
	android:name
		ADDED from C:\Users\andersed\AndroidStudioProjects\STARTablet\app\src\main\AndroidManifest.xml:11:22-78
uses-permission#android.permission.READ_EXTERNAL_STORAGE
ADDED from C:\Users\andersed\AndroidStudioProjects\STARTablet\app\src\main\AndroidManifest.xml:12:5-80
	android:name
		ADDED from C:\Users\andersed\AndroidStudioProjects\STARTablet\app\src\main\AndroidManifest.xml:12:22-77
uses-permission#android.permission.CAMERA
ADDED from C:\Users\andersed\AndroidStudioProjects\STARTablet\app\src\main\AndroidManifest.xml:13:5-65
	android:name
		ADDED from C:\Users\andersed\AndroidStudioProjects\STARTablet\app\src\main\AndroidManifest.xml:13:22-62
uses-permission#android.permission.RECORD_AUDIO
ADDED from C:\Users\andersed\AndroidStudioProjects\STARTablet\app\src\main\AndroidManifest.xml:14:5-71
	android:name
		ADDED from C:\Users\andersed\AndroidStudioProjects\STARTablet\app\src\main\AndroidManifest.xml:14:22-68
uses-feature#android.hardware.camera
ADDED from C:\Users\andersed\AndroidStudioProjects\STARTablet\app\src\main\AndroidManifest.xml:15:5-59
	android:name
		ADDED from C:\Users\andersed\AndroidStudioProjects\STARTablet\app\src\main\AndroidManifest.xml:15:19-57
uses-feature#android.hardware.camera.autofocus
ADDED from C:\Users\andersed\AndroidStudioProjects\STARTablet\app\src\main\AndroidManifest.xml:16:5-69
	android:name
		ADDED from C:\Users\andersed\AndroidStudioProjects\STARTablet\app\src\main\AndroidManifest.xml:16:19-67
uses-feature#android.hardware.camera.front
ADDED from C:\Users\andersed\AndroidStudioProjects\STARTablet\app\src\main\AndroidManifest.xml:17:5-65
	android:name
		ADDED from C:\Users\andersed\AndroidStudioProjects\STARTablet\app\src\main\AndroidManifest.xml:17:19-63
uses-feature#android.hardware.camera.front.autofocus
ADDED from C:\Users\andersed\AndroidStudioProjects\STARTablet\app\src\main\AndroidManifest.xml:18:5-75
	android:name
		ADDED from C:\Users\andersed\AndroidStudioProjects\STARTablet\app\src\main\AndroidManifest.xml:18:19-73
uses-feature#0x00030000
ADDED from C:\Users\andersed\AndroidStudioProjects\STARTablet\app\src\main\AndroidManifest.xml:21:5-23:35
	android:glEsVersion
		ADDED from C:\Users\andersed\AndroidStudioProjects\STARTablet\app\src\main\AndroidManifest.xml:22:9-41
	android:required
		ADDED from C:\Users\andersed\AndroidStudioProjects\STARTablet\app\src\main\AndroidManifest.xml:23:9-32
uses-feature#android.hardware.wifi.direct
ADDED from C:\Users\andersed\AndroidStudioProjects\STARTablet\app\src\main\AndroidManifest.xml:25:5-88
	android:required
		ADDED from C:\Users\andersed\AndroidStudioProjects\STARTablet\app\src\main\AndroidManifest.xml:25:63-86
	android:name
		ADDED from C:\Users\andersed\AndroidStudioProjects\STARTablet\app\src\main\AndroidManifest.xml:25:19-62
application
ADDED from C:\Users\andersed\AndroidStudioProjects\STARTablet\app\src\main\AndroidManifest.xml:27:5-60:19
MERGED from [com.android.support:appcompat-v7:24.2.0] C:\Users\andersed\AndroidStudioProjects\STARTablet\app\build\intermediates\exploded-aar\com.android.support\appcompat-v7\24.2.0\AndroidManifest.xml:25:5-20
MERGED from [com.android.support:support-vector-drawable:24.2.0] C:\Users\andersed\AndroidStudioProjects\STARTablet\app\build\intermediates\exploded-aar\com.android.support\support-vector-drawable\24.2.0\AndroidManifest.xml:23:5-20
MERGED from [com.android.support:support-compat:24.2.0] C:\Users\andersed\AndroidStudioProjects\STARTablet\app\build\intermediates\exploded-aar\com.android.support\support-compat\24.2.0\AndroidManifest.xml:25:5-20
MERGED from [com.android.support:animated-vector-drawable:24.2.0] C:\Users\andersed\AndroidStudioProjects\STARTablet\app\build\intermediates\exploded-aar\com.android.support\animated-vector-drawable\24.2.0\AndroidManifest.xml:22:5-20
MERGED from [com.android.support:support-vector-drawable:24.2.0] C:\Users\andersed\AndroidStudioProjects\STARTablet\app\build\intermediates\exploded-aar\com.android.support\support-vector-drawable\24.2.0\AndroidManifest.xml:23:5-20
MERGED from [com.android.support:support-compat:24.2.0] C:\Users\andersed\AndroidStudioProjects\STARTablet\app\build\intermediates\exploded-aar\com.android.support\support-compat\24.2.0\AndroidManifest.xml:25:5-20
MERGED from [com.android.support:support-v4:24.2.0] C:\Users\andersed\AndroidStudioProjects\STARTablet\app\build\intermediates\exploded-aar\com.android.support\support-v4\24.2.0\AndroidManifest.xml:25:5-20
MERGED from [com.android.support:support-compat:24.2.0] C:\Users\andersed\AndroidStudioProjects\STARTablet\app\build\intermediates\exploded-aar\com.android.support\support-compat\24.2.0\AndroidManifest.xml:25:5-20
MERGED from [com.android.support:support-core-utils:24.2.0] C:\Users\andersed\AndroidStudioProjects\STARTablet\app\build\intermediates\exploded-aar\com.android.support\support-core-utils\24.2.0\AndroidManifest.xml:25:5-20
MERGED from [com.android.support:support-compat:24.2.0] C:\Users\andersed\AndroidStudioProjects\STARTablet\app\build\intermediates\exploded-aar\com.android.support\support-compat\24.2.0\AndroidManifest.xml:25:5-20
MERGED from [com.android.support:support-media-compat:24.2.0] C:\Users\andersed\AndroidStudioProjects\STARTablet\app\build\intermediates\exploded-aar\com.android.support\support-media-compat\24.2.0\AndroidManifest.xml:25:5-20
MERGED from [com.android.support:support-compat:24.2.0] C:\Users\andersed\AndroidStudioProjects\STARTablet\app\build\intermediates\exploded-aar\com.android.support\support-compat\24.2.0\AndroidManifest.xml:25:5-20
MERGED from [com.android.support:support-core-ui:24.2.0] C:\Users\andersed\AndroidStudioProjects\STARTablet\app\build\intermediates\exploded-aar\com.android.support\support-core-ui\24.2.0\AndroidManifest.xml:25:5-20
MERGED from [com.android.support:support-compat:24.2.0] C:\Users\andersed\AndroidStudioProjects\STARTablet\app\build\intermediates\exploded-aar\com.android.support\support-compat\24.2.0\AndroidManifest.xml:25:5-20
MERGED from [com.android.support:support-fragment:24.2.0] C:\Users\andersed\AndroidStudioProjects\STARTablet\app\build\intermediates\exploded-aar\com.android.support\support-fragment\24.2.0\AndroidManifest.xml:25:5-20
MERGED from [com.android.support:support-compat:24.2.0] C:\Users\andersed\AndroidStudioProjects\STARTablet\app\build\intermediates\exploded-aar\com.android.support\support-compat\24.2.0\AndroidManifest.xml:25:5-20
MERGED from [com.android.support:support-core-utils:24.2.0] C:\Users\andersed\AndroidStudioProjects\STARTablet\app\build\intermediates\exploded-aar\com.android.support\support-core-utils\24.2.0\AndroidManifest.xml:25:5-20
MERGED from [com.android.support:support-compat:24.2.0] C:\Users\andersed\AndroidStudioProjects\STARTablet\app\build\intermediates\exploded-aar\com.android.support\support-compat\24.2.0\AndroidManifest.xml:25:5-20
MERGED from [com.android.support:support-media-compat:24.2.0] C:\Users\andersed\AndroidStudioProjects\STARTablet\app\build\intermediates\exploded-aar\com.android.support\support-media-compat\24.2.0\AndroidManifest.xml:25:5-20
MERGED from [com.android.support:support-compat:24.2.0] C:\Users\andersed\AndroidStudioProjects\STARTablet\app\build\intermediates\exploded-aar\com.android.support\support-compat\24.2.0\AndroidManifest.xml:25:5-20
MERGED from [com.android.support:support-core-ui:24.2.0] C:\Users\andersed\AndroidStudioProjects\STARTablet\app\build\intermediates\exploded-aar\com.android.support\support-core-ui\24.2.0\AndroidManifest.xml:25:5-20
MERGED from [com.android.support:support-compat:24.2.0] C:\Users\andersed\AndroidStudioProjects\STARTablet\app\build\intermediates\exploded-aar\com.android.support\support-compat\24.2.0\AndroidManifest.xml:25:5-20
MERGED from [STARTablet:aFileDialog:unspecified] C:\Users\andersed\AndroidStudioProjects\STARTablet\app\build\intermediates\exploded-aar\STARTablet\aFileDialog\unspecified\AndroidManifest.xml:11:5-15:19
	android:label
		ADDED from C:\Users\andersed\AndroidStudioProjects\STARTablet\app\src\main\AndroidManifest.xml:32:9-46
		REJECTED from [STARTablet:aFileDialog:unspecified] C:\Users\andersed\AndroidStudioProjects\STARTablet\app\build\intermediates\exploded-aar\STARTablet\aFileDialog\unspecified\AndroidManifest.xml:13:9-50
	android:hardwareAccelerated
		ADDED from C:\Users\andersed\AndroidStudioProjects\STARTablet\app\src\main\AndroidManifest.xml:29:9-43
	android:allowBackup
		ADDED from C:\Users\andersed\AndroidStudioProjects\STARTablet\app\src\main\AndroidManifest.xml:28:9-35
	android:icon
		ADDED from C:\Users\andersed\AndroidStudioProjects\STARTablet\app\src\main\AndroidManifest.xml:31:9-45
	android:largeHeap
		ADDED from C:\Users\andersed\AndroidStudioProjects\STARTablet\app\src\main\AndroidManifest.xml:30:9-33
	android:theme
		ADDED from C:\Users\andersed\AndroidStudioProjects\STARTablet\app\src\main\AndroidManifest.xml:33:9-50
	tools:replace
		ADDED from C:\Users\andersed\AndroidStudioProjects\STARTablet\app\src\main\AndroidManifest.xml:34:9-38
activity#edu.purdue.andersed.star.ipconnect.STARConnectActivity
ADDED from C:\Users\andersed\AndroidStudioProjects\STARTablet\app\src\main\AndroidManifest.xml:36:9-45:20
	android:screenOrientation
		ADDED from C:\Users\andersed\AndroidStudioProjects\STARTablet\app\src\main\AndroidManifest.xml:39:13-50
	android:label
		ADDED from C:\Users\andersed\AndroidStudioProjects\STARTablet\app\src\main\AndroidManifest.xml:38:13-62
	android:name
		ADDED from C:\Users\andersed\AndroidStudioProjects\STARTablet\app\src\main\AndroidManifest.xml:37:13-82
intent-filter#android.intent.action.MAIN+android.intent.category.LAUNCHER
ADDED from C:\Users\andersed\AndroidStudioProjects\STARTablet\app\src\main\AndroidManifest.xml:40:13-44:29
action#android.intent.action.MAIN
ADDED from C:\Users\andersed\AndroidStudioProjects\STARTablet\app\src\main\AndroidManifest.xml:41:17-69
	android:name
		ADDED from C:\Users\andersed\AndroidStudioProjects\STARTablet\app\src\main\AndroidManifest.xml:41:25-66
category#android.intent.category.LAUNCHER
ADDED from C:\Users\andersed\AndroidStudioProjects\STARTablet\app\src\main\AndroidManifest.xml:43:17-77
	android:name
		ADDED from C:\Users\andersed\AndroidStudioProjects\STARTablet\app\src\main\AndroidManifest.xml:43:27-74
activity#edu.purdue.andersed.star.MainActivity
ADDED from C:\Users\andersed\AndroidStudioProjects\STARTablet\app\src\main\AndroidManifest.xml:47:9-51:20
	android:screenOrientation
		ADDED from C:\Users\andersed\AndroidStudioProjects\STARTablet\app\src\main\AndroidManifest.xml:49:13-50
	android:theme
		ADDED from C:\Users\andersed\AndroidStudioProjects\STARTablet\app\src\main\AndroidManifest.xml:50:13-45
	android:name
		ADDED from C:\Users\andersed\AndroidStudioProjects\STARTablet\app\src\main\AndroidManifest.xml:48:13-65
activity#edu.purdue.andersed.star.settings.SettingsActivity
ADDED from C:\Users\andersed\AndroidStudioProjects\STARTablet\app\src\main\AndroidManifest.xml:53:9-56:20
	android:screenOrientation
		ADDED from C:\Users\andersed\AndroidStudioProjects\STARTablet\app\src\main\AndroidManifest.xml:55:13-50
	android:name
		ADDED from C:\Users\andersed\AndroidStudioProjects\STARTablet\app\src\main\AndroidManifest.xml:54:13-78
service#edu.purdue.andersed.star.wifidirect.SendDataOverSocketService
ADDED from C:\Users\andersed\AndroidStudioProjects\STARTablet\app\src\main\AndroidManifest.xml:58:9-120
	android:enabled
		ADDED from C:\Users\andersed\AndroidStudioProjects\STARTablet\app\src\main\AndroidManifest.xml:58:18-40
	android:name
		ADDED from C:\Users\andersed\AndroidStudioProjects\STARTablet\app\src\main\AndroidManifest.xml:58:41-117
uses-sdk
INJECTED from C:\Users\andersed\AndroidStudioProjects\STARTablet\app\src\main\AndroidManifest.xml reason: use-sdk injection requested
MERGED from [com.android.support:appcompat-v7:24.2.0] C:\Users\andersed\AndroidStudioProjects\STARTablet\app\build\intermediates\exploded-aar\com.android.support\appcompat-v7\24.2.0\AndroidManifest.xml:21:5-23:78
MERGED from [com.android.support:support-vector-drawable:24.2.0] C:\Users\andersed\AndroidStudioProjects\STARTablet\app\build\intermediates\exploded-aar\com.android.support\support-vector-drawable\24.2.0\AndroidManifest.xml:21:5-43
MERGED from [com.android.support:support-compat:24.2.0] C:\Users\andersed\AndroidStudioProjects\STARTablet\app\build\intermediates\exploded-aar\com.android.support\support-compat\24.2.0\AndroidManifest.xml:21:5-23:58
MERGED from [com.android.support:animated-vector-drawable:24.2.0] C:\Users\andersed\AndroidStudioProjects\STARTablet\app\build\intermediates\exploded-aar\com.android.support\animated-vector-drawable\24.2.0\AndroidManifest.xml:20:5-44
MERGED from [com.android.support:support-vector-drawable:24.2.0] C:\Users\andersed\AndroidStudioProjects\STARTablet\app\build\intermediates\exploded-aar\com.android.support\support-vector-drawable\24.2.0\AndroidManifest.xml:21:5-43
MERGED from [com.android.support:support-compat:24.2.0] C:\Users\andersed\AndroidStudioProjects\STARTablet\app\build\intermediates\exploded-aar\com.android.support\support-compat\24.2.0\AndroidManifest.xml:21:5-23:58
MERGED from [com.android.support:support-v4:24.2.0] C:\Users\andersed\AndroidStudioProjects\STARTablet\app\build\intermediates\exploded-aar\com.android.support\support-v4\24.2.0\AndroidManifest.xml:21:5-23:54
MERGED from [com.android.support:support-compat:24.2.0] C:\Users\andersed\AndroidStudioProjects\STARTablet\app\build\intermediates\exploded-aar\com.android.support\support-compat\24.2.0\AndroidManifest.xml:21:5-23:58
MERGED from [com.android.support:support-core-utils:24.2.0] C:\Users\andersed\AndroidStudioProjects\STARTablet\app\build\intermediates\exploded-aar\com.android.support\support-core-utils\24.2.0\AndroidManifest.xml:21:5-23:61
MERGED from [com.android.support:support-compat:24.2.0] C:\Users\andersed\AndroidStudioProjects\STARTablet\app\build\intermediates\exploded-aar\com.android.support\support-compat\24.2.0\AndroidManifest.xml:21:5-23:58
MERGED from [com.android.support:support-media-compat:24.2.0] C:\Users\andersed\AndroidStudioProjects\STARTablet\app\build\intermediates\exploded-aar\com.android.support\support-media-compat\24.2.0\AndroidManifest.xml:21:5-23:63
MERGED from [com.android.support:support-compat:24.2.0] C:\Users\andersed\AndroidStudioProjects\STARTablet\app\build\intermediates\exploded-aar\com.android.support\support-compat\24.2.0\AndroidManifest.xml:21:5-23:58
MERGED from [com.android.support:support-core-ui:24.2.0] C:\Users\andersed\AndroidStudioProjects\STARTablet\app\build\intermediates\exploded-aar\com.android.support\support-core-ui\24.2.0\AndroidManifest.xml:21:5-23:58
MERGED from [com.android.support:support-compat:24.2.0] C:\Users\andersed\AndroidStudioProjects\STARTablet\app\build\intermediates\exploded-aar\com.android.support\support-compat\24.2.0\AndroidManifest.xml:21:5-23:58
MERGED from [com.android.support:support-fragment:24.2.0] C:\Users\andersed\AndroidStudioProjects\STARTablet\app\build\intermediates\exploded-aar\com.android.support\support-fragment\24.2.0\AndroidManifest.xml:21:5-23:60
MERGED from [com.android.support:support-compat:24.2.0] C:\Users\andersed\AndroidStudioProjects\STARTablet\app\build\intermediates\exploded-aar\com.android.support\support-compat\24.2.0\AndroidManifest.xml:21:5-23:58
MERGED from [com.android.support:support-core-utils:24.2.0] C:\Users\andersed\AndroidStudioProjects\STARTablet\app\build\intermediates\exploded-aar\com.android.support\support-core-utils\24.2.0\AndroidManifest.xml:21:5-23:61
MERGED from [com.android.support:support-compat:24.2.0] C:\Users\andersed\AndroidStudioProjects\STARTablet\app\build\intermediates\exploded-aar\com.android.support\support-compat\24.2.0\AndroidManifest.xml:21:5-23:58
MERGED from [com.android.support:support-media-compat:24.2.0] C:\Users\andersed\AndroidStudioProjects\STARTablet\app\build\intermediates\exploded-aar\com.android.support\support-media-compat\24.2.0\AndroidManifest.xml:21:5-23:63
MERGED from [com.android.support:support-compat:24.2.0] C:\Users\andersed\AndroidStudioProjects\STARTablet\app\build\intermediates\exploded-aar\com.android.support\support-compat\24.2.0\AndroidManifest.xml:21:5-23:58
MERGED from [com.android.support:support-core-ui:24.2.0] C:\Users\andersed\AndroidStudioProjects\STARTablet\app\build\intermediates\exploded-aar\com.android.support\support-core-ui\24.2.0\AndroidManifest.xml:21:5-23:58
MERGED from [com.android.support:support-compat:24.2.0] C:\Users\andersed\AndroidStudioProjects\STARTablet\app\build\intermediates\exploded-aar\com.android.support\support-compat\24.2.0\AndroidManifest.xml:21:5-23:58
MERGED from [STARTablet:openCVLibrary310:unspecified] C:\Users\andersed\AndroidStudioProjects\STARTablet\app\build\intermediates\exploded-aar\STARTablet\openCVLibrary310\unspecified\AndroidManifest.xml:7:5-9:41
MERGED from [STARTablet:aFileDialog:unspecified] C:\Users\andersed\AndroidStudioProjects\STARTablet\app\build\intermediates\exploded-aar\STARTablet\aFileDialog\unspecified\AndroidManifest.xml:7:5-9:41
	tools:overrideLibrary
		ADDED from [com.android.support:appcompat-v7:24.2.0] C:\Users\andersed\AndroidStudioProjects\STARTablet\app\build\intermediates\exploded-aar\com.android.support\appcompat-v7\24.2.0\AndroidManifest.xml:23:9-75
	android:targetSdkVersion
		INJECTED from C:\Users\andersed\AndroidStudioProjects\STARTablet\app\src\main\AndroidManifest.xml
		INJECTED from C:\Users\andersed\AndroidStudioProjects\STARTablet\app\src\main\AndroidManifest.xml
	android:minSdkVersion
		INJECTED from C:\Users\andersed\AndroidStudioProjects\STARTablet\app\src\main\AndroidManifest.xml
		INJECTED from C:\Users\andersed\AndroidStudioProjects\STARTablet\app\src\main\AndroidManifest.xml
activity#ar.com.daidalos.afiledialog.FileChooserActivity
ADDED from [STARTablet:aFileDialog:unspecified] C:\Users\andersed\AndroidStudioProjects\STARTablet\app\build\intermediates\exploded-aar\STARTablet\aFileDialog\unspecified\AndroidManifest.xml:14:9-84
	android:name
		ADDED from [STARTablet:aFileDialog:unspecified] C:\Users\andersed\AndroidStudioProjects\STARTablet\app\build\intermediates\exploded-aar\STARTablet\aFileDialog\unspecified\AndroidManifest.xml:14:19-81
